Patterns of convergence and divergence within the convergEU package
…
For illustrating practically the points discussed above, let’s consider a first example related to the emp_20_64_MS dataset for which the indicator is of type highBest. Thus, for obtaining the patterns for this type of indicator,we invoke the ms_pattern_ori function as follows:

myemp <-ms_pattern_ori(emp_20_64_MS, "time",type="highBest")

The output of the ms_pattern_ori function consists of the usual three list components: “$res” that contains the results, “$msg” that possibly carries messages for the user and “$err” which is a string containing an error message, if an error occurs:

names(myemp)
#> [1] "res" "msg" "err"

The “$res” component of the output contains the numerical labels for the patterns as well as their string labels:

mypattemp<-myemp$res$mat_label_tags
mypattempn<-myemp$res$mat_without_summaries
mypattempn
#> # A tibble: 28 x 17
#>    Country `2002/2003` `2003/2004` `2004/2005` `2005/2006` `2006/2007`
#>    <chr>         <int>       <int>       <int>       <int>       <int>
#>  1 AT                4           3           4           4           4
#>  2 BE                6           1           1          21           1
#>  3 BG                1           1           1           1           1
#>  4 CY                4           4           3           4           2
#>  5 CZ                3           3           4           2           2
#>  6 DE                3          19          20           4           4
#>  7 DK                3           4           3           4           3
#>  8 EE                4           4           4           4           2
#>  9 EL                1           1           5           1           5
#> 10 ES                1           1           1           1           5
#> # … with 18 more rows, and 11 more variables: `2007/2008` <int>,
#> #   `2008/2009` <int>, `2009/2010` <int>, `2010/2011` <int>, `2011/2012` <int>,
#> #   `2012/2013` <int>, `2013/2014` <int>, `2014/2015` <int>, `2015/2016` <int>,
#> #   `2016/2017` <int>, `2017/2018` <int>
mypattemp
#> # A tibble: 28 x 17
#>    Country `2002/2003` `2003/2004` `2004/2005` `2005/2006` `2006/2007`
#>    <chr>   <chr>       <chr>       <chr>       <chr>       <chr>      
#>  1 AT      Outperform… Inversion   Outperform… Outperform… Outperform…
#>  2 BE      Diving      Catching up Catching up Other (Ins… Catching up
#>  3 BG      Catching up Catching up Catching up Catching up Catching up
#>  4 CY      Outperform… Outperform… Inversion   Outperform… Flattening 
#>  5 CZ      Inversion   Inversion   Outperform… Flattening  Flattening 
#>  6 DE      Inversion   Crossing    Crossing r… Outperform… Outperform…
#>  7 DK      Inversion   Outperform… Inversion   Outperform… Inversion  
#>  8 EE      Outperform… Outperform… Outperform… Outperform… Flattening 
#>  9 EL      Catching up Catching up Slower pace Catching up Slower pace
#> 10 ES      Catching up Catching up Catching up Catching up Slower pace
#> # … with 18 more rows, and 11 more variables: `2007/2008` <chr>,
#> #   `2008/2009` <chr>, `2009/2010` <chr>, `2010/2011` <chr>, `2011/2012` <chr>,
#> #   `2012/2013` <chr>, `2013/2014` <chr>, `2014/2015` <chr>, `2015/2016` <chr>,
#> #   `2016/2017` <chr>, `2017/2018` <chr>
…
in order to obtain the final dataset myxlsf for calculating patterns.

The indicator une_educ_a is of type “low is better”; thus, the syntax to find the patterns is as follows:

myres <-  ms_pattern_ori(myxlsf, "time",type="lowBest")

where the “$res” component of the output contains the numerical labels for the patterns as well as their string labels:

mypattl<-myres$res$mat_label_tags
mypattn<-myres$res$mat_without_summaries
mypattn
#> # A tibble: 27 x 10
#>    Country `2009/2010` `2010/2011` `2011/2012` `2012/2013` `2013/2014`
#>    <chr>         <dbl>       <dbl>       <dbl>       <dbl>       <dbl>
#>  1 BE                7           8           7          10           3
#>  2 DK               10           7           7           8           2
#>  3 FR               20          21          21          21          21
#>  4 DE                8           8           8           8           2
#>  5 EL               10          10          19           9           1
#>  6 IE                9           9           9          11           1
#>  7 IT                7           7          10          10           3
#>  8 LU                8          10           7          10          21
#>  9 NL                7           8          10          10           3
#> 10 PT                7          10          10          10           4
#> # … with 17 more rows, and 4 more variables: `2014/2015` <dbl>,
#> #   `2015/2016` <dbl>, `2016/2017` <dbl>, `2017/2018` <dbl>
mypattl
#> # A tibble: 27 x 10
#>    Country `2009/2010` `2010/2011` `2011/2012` `2012/2013` `2013/2014`
#>    <chr>   <chr>       <chr>       <chr>       <chr>       <chr>      
#>  1 BE      Defending … Escaping    Defending … Underperfo… Inversion  
#>  2 DK      Underperfo… Defending … Defending … Escaping    Flattening 
#>  3 FR      Crossing r… Other (Ins… Other (Ins… Other (Ins… Other (Ins…
#>  4 DE      Escaping    Escaping    Escaping    Escaping    Flattening 
#>  5 EL      Underperfo… Underperfo… Crossing    Falling aw… Catching up
#>  6 IE      Falling aw… Falling aw… Falling aw… Recovering  Catching up
#>  7 IT      Defending … Defending … Underperfo… Underperfo… Inversion  
#>  8 LU      Escaping    Underperfo… Defending … Underperfo… Other (Ins…
#>  9 NL      Defending … Escaping    Underperfo… Underperfo… Inversion  
#> 10 PT      Defending … Underperfo… Underperfo… Underperfo… Outperform…
#> # … with 17 more rows, and 4 more variables: `2014/2015` <chr>,
#> #   `2015/2016` <chr>, `2016/2017` <chr>, `2017/2018` <chr>
…
